<?xml version="1.0" encoding="UTF-8" standalone="no"?>
<!-- Created with Inkscape (http://www.inkscape.org/) -->

<svg
   xmlns:dc="http://purl.org/dc/elements/1.1/"
   xmlns:cc="http://creativecommons.org/ns#"
   xmlns:rdf="http://www.w3.org/1999/02/22-rdf-syntax-ns#"
   xmlns:svg="http://www.w3.org/2000/svg"
   xmlns="http://www.w3.org/2000/svg"
   xmlns:sodipodi="http://sodipodi.sourceforge.net/DTD/sodipodi-0.dtd"
   xmlns:inkscape="http://www.inkscape.org/namespaces/inkscape"
   width="744.09448819"
   height="1052.3622047"
   id="svg4755"
   version="1.1"
   inkscape:version="0.48.5 r10040"
   sodipodi:docname="03-gitcommit.svg">
  <defs
     id="defs4757">
    <marker
       inkscape:stockid="Arrow1Lend"
       orient="auto"
       refY="0"
       refX="0"
       id="Arrow1Lend"
       style="overflow:visible">
      <path
         inkscape:connector-curvature="0"
         id="path3952"
         d="M 0,0 5,-5 -12.5,0 5,5 0,0 z"
         style="fill-rule:evenodd;stroke:#000000;stroke-width:1pt"
         transform="matrix(-0.8,0,0,-0.8,-10,0)" />
    </marker>
  </defs>
  <sodipodi:namedview
     id="base"
     pagecolor="#ffffff"
     bordercolor="#ffffff"
     borderopacity="0.0"
     inkscape:pageopacity="0.0"
     inkscape:pageshadow="0"
     inkscape:zoom="0.175"
     inkscape:cx="93.80083"
     inkscape:cy="2965.0402"
     inkscape:document-units="px"
     inkscape:current-layer="layer1"
     showgrid="false"
     inkscape:window-width="1022"
     inkscape:window-height="576"
     inkscape:window-x="0"
     inkscape:window-y="22"
     inkscape:window-maximized="1" />
  <metadata
     id="metadata4760">
    <rdf:RDF>
      <cc:Work
         rdf:about="">
        <dc:format>image/svg+xml</dc:format>
        <dc:type
           rdf:resource="http://purl.org/dc/dcmitype/StillImage" />
        <dc:title></dc:title>
      </cc:Work>
    </rdf:RDF>
  </metadata>
  <g
     inkscape:label="Layer 1"
     inkscape:groupmode="layer"
     id="layer1">
    <g
       transform="matrix(1.8259002,0,0,2.5293242,-361.50079,-1929.7528)"
       id="g3143">
      <path
         d="m 282.85715,886.64789 c 0,33.13708 -49.24868,60 -110,60 -60.75133,0 -110.000003,-26.86292 -110.000003,-60 0,-33.13709 49.248673,-60 110.000003,-60 60.75132,0 110,26.86291 110,60 z"
         sodipodi:ry="60"
         sodipodi:rx="110"
         sodipodi:cy="886.64789"
         sodipodi:cx="172.85715"
         id="path3135"
         style="fill:#00ffff;fill-opacity:1;stroke:#00ffff;stroke-width:0.46532804;stroke-linejoin:bevel;stroke-miterlimit:4;stroke-opacity:1;stroke-dasharray:1.39598415, 0.46532805;stroke-dashoffset:0"
         sodipodi:type="arc" />
      <path
         d="m 337.14287,938.07648 c 0,28.40321 -30.70048,51.42857 -68.57143,51.42857 -37.87095,0 -68.57142,-23.02536 -68.57142,-51.42857 0,-28.40322 30.70047,-51.42857 68.57142,-51.42857 37.87095,0 68.57143,23.02535 68.57143,51.42857 z"
         sodipodi:ry="51.42857"
         sodipodi:rx="68.571426"
         sodipodi:cy="938.07648"
         sodipodi:cx="268.57144"
         id="path3137"
         style="fill:#00ffff;fill-opacity:1;stroke:#00ffff;stroke-width:0.46532804;stroke-linejoin:bevel;stroke-miterlimit:4;stroke-opacity:1;stroke-dasharray:1.39598415, 0.46532805;stroke-dashoffset:0"
         sodipodi:type="arc" />
      <path
         d="m 397.14287,835.2193 c 0,20.51343 -44.13193,37.14286 -98.57143,37.14286 -54.43949,0 -98.57142,-16.62943 -98.57142,-37.14286 0,-20.51343 44.13193,-37.14286 98.57142,-37.14286 54.4395,0 98.57143,16.62943 98.57143,37.14286 z"
         sodipodi:ry="37.142857"
         sodipodi:rx="98.571426"
         sodipodi:cy="835.2193"
         sodipodi:cx="298.57144"
         id="path3139"
         style="fill:#00ffff;fill-opacity:1;stroke:#00ffff;stroke-width:0.46532804;stroke-linejoin:bevel;stroke-miterlimit:4;stroke-opacity:1;stroke-dasharray:1.39598415, 0.46532805;stroke-dashoffset:0"
         sodipodi:type="arc" />
      <path
         d="m 494.28572,913.79077 c 0,29.1922 -64.59892,52.85714 -144.28572,52.85714 -79.6868,0 -144.28572,-23.66494 -144.28572,-52.85714 0,-29.19219 64.59892,-52.85714 144.28572,-52.85714 79.6868,0 144.28572,23.66495 144.28572,52.85714 z"
         sodipodi:ry="52.857143"
         sodipodi:rx="144.28572"
         sodipodi:cy="913.79077"
         sodipodi:cx="350"
         id="path3141"
         style="fill:#00ffff;fill-opacity:1;stroke:#00ffff;stroke-width:0.46532804;stroke-linejoin:bevel;stroke-miterlimit:4;stroke-opacity:1;stroke-dasharray:1.39598415, 0.46532805;stroke-dashoffset:0"
         sodipodi:type="arc" />
    </g>
    <text
       xml:space="preserve"
       style="font-size:48px;font-style:normal;font-variant:normal;font-weight:normal;font-stretch:normal;text-align:start;line-height:125%;letter-spacing:0px;word-spacing:0px;writing-mode:lr-tb;text-anchor:start;fill:#000000;fill-opacity:1;stroke:none;font-family:DejaVu Sans;-inkscape-font-specification:Sans"
       x="454.28574"
       y="246.64792"
       id="text4793"
       sodipodi:linespacing="125%"><tspan
         sodipodi:role="line"
         id="tspan4795"
         x="454.28574"
         y="246.64792">working folder</tspan></text>
    <text
       xml:space="preserve"
       style="font-size:48px;font-style:normal;font-variant:normal;font-weight:normal;font-stretch:normal;text-align:start;line-height:125%;letter-spacing:0px;word-spacing:0px;writing-mode:lr-tb;text-anchor:start;fill:#000000;fill-opacity:1;stroke:none;font-family:DejaVu Sans;-inkscape-font-specification:Sans"
       x="-100"
       y="186.64792"
       id="text4797"
       sodipodi:linespacing="125%"><tspan
         sodipodi:role="line"
         id="tspan4799"
         x="-100"
         y="186.64792">pix/</tspan><tspan
         sodipodi:role="line"
         x="-100"
         y="246.64792"
         id="tspan4801">  00-nogit.svg</tspan><tspan
         sodipodi:role="line"
         x="-100"
         y="306.64792"
         id="tspan4955">  01-gitinit.svg</tspan><tspan
         sodipodi:role="line"
         x="-100"
         y="366.64798"
         id="tspan4957">  02-gitadd.svg</tspan><tspan
         sodipodi:role="line"
         x="-100"
         y="426.64798"
         id="tspan4803">presentation.md</tspan><tspan
         sodipodi:role="line"
         x="-100"
         y="486.64798"
         id="tspan4805">terminology.md</tspan></text>
    <text
       xml:space="preserve"
       style="font-size:193.31396484px;font-style:normal;font-variant:normal;font-weight:normal;font-stretch:normal;text-align:start;line-height:125%;letter-spacing:0px;word-spacing:0px;writing-mode:lr-tb;text-anchor:start;fill:#000000;fill-opacity:1;stroke:none;font-family:DejaVu Sans;-inkscape-font-specification:Sans"
       x="-225.69034"
       y="1525.6239"
       id="text4867"
       sodipodi:linespacing="125%"><tspan
         sodipodi:role="line"
         id="tspan4869"
         x="-225.69034"
         y="1525.6239">git commit again</tspan></text>
    <text
       xml:space="preserve"
       style="font-size:48px;font-style:normal;font-variant:normal;font-weight:normal;font-stretch:normal;text-align:start;line-height:125%;letter-spacing:0px;word-spacing:0px;writing-mode:lr-tb;text-anchor:start;fill:#000000;fill-opacity:1;stroke:none;font-family:DejaVu Sans;-inkscape-font-specification:Sans"
       x="-25.714285"
       y="-259.06641"
       id="text4889"
       sodipodi:linespacing="125%"><tspan
         sodipodi:role="line"
         id="tspan4891"
         x="-25.714285"
         y="-259.06641">&quot;master&quot; branch</tspan></text>
    <text
       xml:space="preserve"
       style="font-size:48px;font-style:normal;font-variant:normal;font-weight:normal;font-stretch:normal;text-align:start;line-height:125%;letter-spacing:0px;word-spacing:0px;writing-mode:lr-tb;text-anchor:start;fill:#000000;fill-opacity:1;stroke:none;font-family:DejaVu Sans;-inkscape-font-specification:Sans"
       x="-1180.0001"
       y="-741.92358"
       id="text4893"
       sodipodi:linespacing="125%"><tspan
         sodipodi:role="line"
         id="tspan4895"
         x="-1180.0001"
         y="-741.92358">index</tspan><tspan
         sodipodi:role="line"
         x="-1180.0001"
         y="-681.92358"
         id="tspan4897">(what files will be committed next)</tspan></text>
    <g
       id="g5504"
       transform="translate(-97.142857,-2537.1429)">
      <rect
         y="-49.066387"
         x="-187.1429"
         height="505.71429"
         width="723.91724"
         id="rect3149"
         style="fill:none;stroke:#000000;stroke-width:5;stroke-linejoin:bevel;stroke-miterlimit:4;stroke-opacity:1;stroke-dasharray:none;stroke-dashoffset:0" />
      <text
         sodipodi:linespacing="125%"
         id="text4945"
         y="230.20676"
         x="-87.913002"
         style="font-size:48px;font-style:normal;font-variant:normal;font-weight:normal;font-stretch:normal;text-align:start;line-height:125%;letter-spacing:0px;word-spacing:0px;writing-mode:lr-tb;text-anchor:start;fill:#000000;fill-opacity:1;stroke:none;font-family:DejaVu Sans;-inkscape-font-specification:Sans"
         xml:space="preserve"><tspan
           y="230.20676"
           x="-87.913002"
           id="tspan4947"
           sodipodi:role="line">git-trouble.md</tspan><tspan
           id="tspan4949"
           y="290.20676"
           x="-87.913002"
           sodipodi:role="line" /></text>
      <text
         sodipodi:linespacing="125%"
         id="text4951"
         y="157.36703"
         x="-101.01525"
         style="font-size:48px;font-style:normal;font-variant:normal;font-weight:normal;font-stretch:normal;text-align:start;line-height:125%;letter-spacing:0px;word-spacing:0px;writing-mode:lr-tb;text-anchor:start;fill:#000000;fill-opacity:1;stroke:none;font-family:DejaVu Sans;-inkscape-font-specification:Sans"
         xml:space="preserve"><tspan
           y="157.36703"
           x="-101.01525"
           id="tspan4953"
           sodipodi:role="line">pix/00-nogit.svg</tspan></text>
      <text
         sodipodi:linespacing="125%"
         id="text5500"
         y="-113.3521"
         x="-177.14285"
         style="font-size:48px;font-style:normal;font-variant:normal;font-weight:normal;font-stretch:normal;text-align:start;line-height:125%;letter-spacing:0px;word-spacing:0px;writing-mode:lr-tb;text-anchor:start;fill:#000000;fill-opacity:1;stroke:none;font-family:DejaVu Sans;-inkscape-font-specification:Sans"
         xml:space="preserve"><tspan
           y="-113.3521"
           x="-177.14285"
           id="tspan5502"
           sodipodi:role="line">01879361f8014ca8d80cfb6c7e4a27f2346dc50b</tspan></text>
    </g>
    <text
       xml:space="preserve"
       style="font-size:85.44100952px;font-style:normal;font-variant:normal;font-weight:normal;font-stretch:normal;text-align:start;line-height:125%;letter-spacing:0px;word-spacing:0px;writing-mode:lr-tb;text-anchor:start;fill:#000000;fill-opacity:1;stroke:none;font-family:DejaVu Sans;-inkscape-font-specification:Sans"
       x="-1432.2461"
       y="-1222.0486"
       id="text5514"
       sodipodi:linespacing="125%"><tspan
         sodipodi:role="line"
         id="tspan5516"
         x="-1432.2461"
         y="-1222.0486">HEAD (of master branch)</tspan></text>
    <g
       id="g5568"
       transform="translate(-74.285714,-1634.2857)">
      <rect
         y="-74.780693"
         x="-201.95866"
         height="505.71429"
         width="723.91724"
         id="rect3149-9"
         style="fill:none;stroke:#000000;stroke-width:5;stroke-linejoin:bevel;stroke-miterlimit:4;stroke-opacity:1;stroke-dasharray:none;stroke-dashoffset:0" />
      <text
         sodipodi:linespacing="125%"
         id="text5537"
         y="-141.92352"
         x="-194.28571"
         style="font-size:48px;font-style:normal;font-variant:normal;font-weight:normal;font-stretch:normal;text-align:start;line-height:125%;letter-spacing:0px;word-spacing:0px;writing-mode:lr-tb;text-anchor:start;fill:#000000;fill-opacity:1;stroke:none;font-family:DejaVu Sans;-inkscape-font-specification:Sans"
         xml:space="preserve"><tspan
           y="-141.92352"
           x="-194.28571"
           id="tspan5539"
           sodipodi:role="line">0fa22809cbe625819d34c0e14fa6d679f92cbd67</tspan></text>
      <text
         sodipodi:linespacing="125%"
         id="text5541"
         y="80.933609"
         x="-125.71429"
         style="font-size:48px;font-style:normal;font-variant:normal;font-weight:normal;font-stretch:normal;text-align:start;line-height:125%;letter-spacing:0px;word-spacing:0px;writing-mode:lr-tb;text-anchor:start;fill:#000000;fill-opacity:1;stroke:none;font-family:DejaVu Sans;-inkscape-font-specification:Sans"
         xml:space="preserve"><tspan
           y="80.933609"
           x="-125.71429"
           id="tspan5543"
           sodipodi:role="line">git-trouble.md</tspan><tspan
           id="tspan5545"
           y="140.93361"
           x="-125.71429"
           sodipodi:role="line">pix/01-gitinit.svg</tspan><tspan
           id="tspan5547"
           y="200.93361"
           x="-125.71429"
           sodipodi:role="line">pix/02-gitcommit.svg</tspan></text>
    </g>
    <path
       style="fill:none;stroke:#000000;stroke-width:6;stroke-linecap:butt;stroke-linejoin:miter;stroke-miterlimit:4;stroke-opacity:1;stroke-dasharray:none;marker-start:none;marker-end:url(#Arrow1Lend)"
       d="m 87.262234,-1851.9236 -2.54586,-214.2857"
       id="path3943"
       inkscape:connector-curvature="0" />
    <rect
       style="fill:none;stroke:#000000;stroke-width:5;stroke-linejoin:bevel;stroke-miterlimit:4;stroke-opacity:1;stroke-dasharray:5.00000003, 10.00000004;stroke-dashoffset:0"
       id="rect3149-5"
       width="677.14282"
       height="368.57144"
       x="-181.42857"
       y="-903.35211" />
  </g>
</svg>
