<?xml version="1.0" encoding="UTF-8" standalone="no"?>
<!-- Created with Inkscape (http://www.inkscape.org/) -->

<svg
   xmlns:dc="http://purl.org/dc/elements/1.1/"
   xmlns:cc="http://creativecommons.org/ns#"
   xmlns:rdf="http://www.w3.org/1999/02/22-rdf-syntax-ns#"
   xmlns:svg="http://www.w3.org/2000/svg"
   xmlns="http://www.w3.org/2000/svg"
   xmlns:sodipodi="http://sodipodi.sourceforge.net/DTD/sodipodi-0.dtd"
   xmlns:inkscape="http://www.inkscape.org/namespaces/inkscape"
   width="744.09448819"
   height="1052.3622047"
   id="svg4755"
   version="1.1"
   inkscape:version="0.48.5 r10040"
<<<<<<< HEAD
   sodipodi:docname="04-gitcommit.svg">
=======
   sodipodi:docname="05-branch.svg">
>>>>>>> fixheadings
  <defs
     id="defs4757">
    <marker
       inkscape:stockid="Arrow1Lend"
       orient="auto"
       refY="0"
       refX="0"
       id="Arrow1Lend"
       style="overflow:visible">
      <path
         inkscape:connector-curvature="0"
         id="path3952"
         d="M 0,0 5,-5 -12.5,0 5,5 0,0 z"
         style="fill-rule:evenodd;stroke:#000000;stroke-width:1pt"
         transform="matrix(-0.8,0,0,-0.8,-10,0)" />
    </marker>
    <marker
       inkscape:stockid="Arrow1Lend"
       orient="auto"
       refY="0"
       refX="0"
       id="Arrow1Lend-9"
       style="overflow:visible">
      <path
         inkscape:connector-curvature="0"
         id="path3952-2"
         d="M 0,0 5,-5 -12.5,0 5,5 0,0 z"
         style="fill-rule:evenodd;stroke:#000000;stroke-width:1pt"
         transform="matrix(-0.8,0,0,-0.8,-10,0)" />
    </marker>
<<<<<<< HEAD
=======
    <marker
       inkscape:stockid="Arrow1Lend"
       orient="auto"
       refY="0"
       refX="0"
       id="Arrow1Lend-1"
       style="overflow:visible">
      <path
         inkscape:connector-curvature="0"
         id="path3952-29"
         d="M 0,0 5,-5 -12.5,0 5,5 0,0 z"
         style="fill-rule:evenodd;stroke:#000000;stroke-width:1pt"
         transform="matrix(-0.8,0,0,-0.8,-10,0)" />
    </marker>
    <marker
       inkscape:stockid="Arrow1Lend"
       orient="auto"
       refY="0"
       refX="0"
       id="Arrow1Lend-19"
       style="overflow:visible">
      <path
         inkscape:connector-curvature="0"
         id="path3952-4"
         d="M 0,0 5,-5 -12.5,0 5,5 0,0 z"
         style="fill-rule:evenodd;stroke:#000000;stroke-width:1pt"
         transform="matrix(-0.8,0,0,-0.8,-10,0)" />
    </marker>
>>>>>>> fixheadings
  </defs>
  <sodipodi:namedview
     id="base"
     pagecolor="#ffffff"
     bordercolor="#ffffff"
     borderopacity="0.0"
     inkscape:pageopacity="0.0"
     inkscape:pageshadow="0"
<<<<<<< HEAD
     inkscape:zoom="0.175"
     inkscape:cx="93.80083"
     inkscape:cy="2839.7024"
=======
     inkscape:zoom="0.061871843"
     inkscape:cx="-61.13322"
     inkscape:cy="1795.8212"
>>>>>>> fixheadings
     inkscape:document-units="px"
     inkscape:current-layer="layer1"
     showgrid="false"
     inkscape:window-width="1022"
     inkscape:window-height="576"
     inkscape:window-x="0"
     inkscape:window-y="22"
     inkscape:window-maximized="1" />
  <metadata
     id="metadata4760">
    <rdf:RDF>
      <cc:Work
         rdf:about="">
        <dc:format>image/svg+xml</dc:format>
        <dc:type
           rdf:resource="http://purl.org/dc/dcmitype/StillImage" />
        <dc:title></dc:title>
      </cc:Work>
    </rdf:RDF>
  </metadata>
  <g
     inkscape:label="Layer 1"
     inkscape:groupmode="layer"
     id="layer1">
    <g
<<<<<<< HEAD
       transform="matrix(1.8259002,0,0,2.5293242,-430.07222,-1306.8957)"
=======
       transform="matrix(4.0254334,0,0,2.5293242,-1711.2193,-518.97672)"
>>>>>>> fixheadings
       id="g3143">
      <path
         d="m 282.85715,886.64789 c 0,33.13708 -49.24868,60 -110,60 -60.75133,0 -110.000003,-26.86292 -110.000003,-60 0,-33.13709 49.248673,-60 110.000003,-60 60.75132,0 110,26.86291 110,60 z"
         sodipodi:ry="60"
         sodipodi:rx="110"
         sodipodi:cy="886.64789"
         sodipodi:cx="172.85715"
         id="path3135"
<<<<<<< HEAD
         style="fill:#00ffff;fill-opacity:1;stroke:#00ffff;stroke-width:0.46532804;stroke-linejoin:bevel;stroke-miterlimit:4;stroke-opacity:1;stroke-dasharray:1.39598415, 0.46532805;stroke-dashoffset:0"
=======
         style="fill:#00ffff;fill-opacity:1;stroke:#00ffff;stroke-width:0.31339455;stroke-linejoin:bevel;stroke-miterlimit:4;stroke-opacity:1;stroke-dasharray:0.94018363, 0.31339454;stroke-dashoffset:0"
>>>>>>> fixheadings
         sodipodi:type="arc" />
      <path
         d="m 337.14287,938.07648 c 0,28.40321 -30.70048,51.42857 -68.57143,51.42857 -37.87095,0 -68.57142,-23.02536 -68.57142,-51.42857 0,-28.40322 30.70047,-51.42857 68.57142,-51.42857 37.87095,0 68.57143,23.02535 68.57143,51.42857 z"
         sodipodi:ry="51.42857"
         sodipodi:rx="68.571426"
         sodipodi:cy="938.07648"
         sodipodi:cx="268.57144"
         id="path3137"
<<<<<<< HEAD
         style="fill:#00ffff;fill-opacity:1;stroke:#00ffff;stroke-width:0.46532804;stroke-linejoin:bevel;stroke-miterlimit:4;stroke-opacity:1;stroke-dasharray:1.39598415, 0.46532805;stroke-dashoffset:0"
=======
         style="fill:#00ffff;fill-opacity:1;stroke:#00ffff;stroke-width:0.31339455;stroke-linejoin:bevel;stroke-miterlimit:4;stroke-opacity:1;stroke-dasharray:0.94018363, 0.31339454;stroke-dashoffset:0"
>>>>>>> fixheadings
         sodipodi:type="arc" />
      <path
         d="m 397.14287,835.2193 c 0,20.51343 -44.13193,37.14286 -98.57143,37.14286 -54.43949,0 -98.57142,-16.62943 -98.57142,-37.14286 0,-20.51343 44.13193,-37.14286 98.57142,-37.14286 54.4395,0 98.57143,16.62943 98.57143,37.14286 z"
         sodipodi:ry="37.142857"
         sodipodi:rx="98.571426"
         sodipodi:cy="835.2193"
         sodipodi:cx="298.57144"
         id="path3139"
<<<<<<< HEAD
         style="fill:#00ffff;fill-opacity:1;stroke:#00ffff;stroke-width:0.46532804;stroke-linejoin:bevel;stroke-miterlimit:4;stroke-opacity:1;stroke-dasharray:1.39598415, 0.46532805;stroke-dashoffset:0"
=======
         style="fill:#00ffff;fill-opacity:1;stroke:#00ffff;stroke-width:0.31339455;stroke-linejoin:bevel;stroke-miterlimit:4;stroke-opacity:1;stroke-dasharray:0.94018363, 0.31339454;stroke-dashoffset:0"
>>>>>>> fixheadings
         sodipodi:type="arc" />
      <path
         d="m 494.28572,913.79077 c 0,29.1922 -64.59892,52.85714 -144.28572,52.85714 -79.6868,0 -144.28572,-23.66494 -144.28572,-52.85714 0,-29.19219 64.59892,-52.85714 144.28572,-52.85714 79.6868,0 144.28572,23.66495 144.28572,52.85714 z"
         sodipodi:ry="52.857143"
         sodipodi:rx="144.28572"
         sodipodi:cy="913.79077"
         sodipodi:cx="350"
         id="path3141"
<<<<<<< HEAD
         style="fill:#00ffff;fill-opacity:1;stroke:#00ffff;stroke-width:0.46532804;stroke-linejoin:bevel;stroke-miterlimit:4;stroke-opacity:1;stroke-dasharray:1.39598415, 0.46532805;stroke-dashoffset:0"
=======
         style="fill:#00ffff;fill-opacity:1;stroke:#00ffff;stroke-width:0.31339455;stroke-linejoin:bevel;stroke-miterlimit:4;stroke-opacity:1;stroke-dasharray:0.94018363, 0.31339454;stroke-dashoffset:0"
>>>>>>> fixheadings
         sodipodi:type="arc" />
    </g>
    <text
       xml:space="preserve"
       style="font-size:48px;font-style:normal;font-variant:normal;font-weight:normal;font-stretch:normal;text-align:start;line-height:125%;letter-spacing:0px;word-spacing:0px;writing-mode:lr-tb;text-anchor:start;fill:#000000;fill-opacity:1;stroke:none;font-family:DejaVu Sans;-inkscape-font-specification:Sans"
<<<<<<< HEAD
       x="385.71429"
       y="869.50507"
=======
       x="191.76501"
       y="1657.4241"
>>>>>>> fixheadings
       id="text4793"
       sodipodi:linespacing="125%"><tspan
         sodipodi:role="line"
         id="tspan4795"
<<<<<<< HEAD
         x="385.71429"
         y="869.50507">working folder</tspan></text>
    <text
       xml:space="preserve"
       style="font-size:48px;font-style:normal;font-variant:normal;font-weight:normal;font-stretch:normal;text-align:start;line-height:125%;letter-spacing:0px;word-spacing:0px;writing-mode:lr-tb;text-anchor:start;fill:#000000;fill-opacity:1;stroke:none;font-family:DejaVu Sans;-inkscape-font-specification:Sans"
       x="-168.57143"
       y="809.50507"
=======
         x="191.76501"
         y="1657.4241">working folder</tspan></text>
    <text
       xml:space="preserve"
       style="font-size:48px;font-style:normal;font-variant:normal;font-weight:normal;font-stretch:normal;text-align:start;line-height:125%;letter-spacing:0px;word-spacing:0px;writing-mode:lr-tb;text-anchor:start;fill:#000000;fill-opacity:1;stroke:none;font-family:DejaVu Sans;-inkscape-font-specification:Sans"
       x="-762.54114"
       y="1589.3429"
>>>>>>> fixheadings
       id="text4797"
       sodipodi:linespacing="125%"><tspan
         sodipodi:role="line"
         id="tspan4799"
<<<<<<< HEAD
         x="-168.57143"
         y="809.50507">pix/</tspan><tspan
         sodipodi:role="line"
         x="-168.57143"
         y="869.50507"
         id="tspan4801">  00-nogit.svg</tspan><tspan
         sodipodi:role="line"
         x="-168.57143"
         y="929.50507"
         id="tspan4955">  01-gitinit.svg</tspan><tspan
         sodipodi:role="line"
         x="-168.57143"
         y="989.50507"
         id="tspan4957">  02-gitadd.svg</tspan><tspan
         sodipodi:role="line"
         x="-168.57143"
         y="1049.505"
         id="tspan4803">presentation.md</tspan><tspan
         sodipodi:role="line"
         x="-168.57143"
         y="1109.505"
=======
         x="-762.54114"
         y="1589.3429">pix/</tspan><tspan
         sodipodi:role="line"
         x="-762.54114"
         y="1649.3429"
         id="tspan4801">  00-nogit.svg</tspan><tspan
         sodipodi:role="line"
         x="-762.54114"
         y="1709.3429"
         id="tspan4955">  01-gitinit.svg</tspan><tspan
         sodipodi:role="line"
         x="-762.54114"
         y="1769.3429"
         id="tspan4957">  02-gitadd.svg</tspan><tspan
         sodipodi:role="line"
         x="-762.54114"
         y="1829.3429"
         id="tspan4803">presentation.md</tspan><tspan
         sodipodi:role="line"
         x="-762.54114"
         y="1889.3429"
>>>>>>> fixheadings
         id="tspan4805">terminology.md</tspan></text>
    <text
       xml:space="preserve"
       style="font-size:193.31396484px;font-style:normal;font-variant:normal;font-weight:normal;font-stretch:normal;text-align:start;line-height:125%;letter-spacing:0px;word-spacing:0px;writing-mode:lr-tb;text-anchor:start;fill:#000000;fill-opacity:1;stroke:none;font-family:DejaVu Sans;-inkscape-font-specification:Sans"
<<<<<<< HEAD
       x="-225.69034"
       y="1525.6239"
=======
       x="-209.52789"
       y="2333.7458"
>>>>>>> fixheadings
       id="text4867"
       sodipodi:linespacing="125%"><tspan
         sodipodi:role="line"
         id="tspan4869"
<<<<<<< HEAD
         x="-225.69034"
         y="1525.6239">git commit again</tspan></text>
    <text
       xml:space="preserve"
       style="font-size:48px;font-style:normal;font-variant:normal;font-weight:normal;font-stretch:normal;text-align:start;line-height:125%;letter-spacing:0px;word-spacing:0px;writing-mode:lr-tb;text-anchor:start;fill:#000000;fill-opacity:1;stroke:none;font-family:DejaVu Sans;-inkscape-font-specification:Sans"
       x="-145.71428"
       y="558.07648"
=======
         x="-209.52789"
         y="2333.7458">git branch</tspan></text>
    <text
       xml:space="preserve"
       style="font-size:93.32971191px;font-style:normal;font-variant:normal;font-weight:normal;font-stretch:normal;text-align:start;line-height:125%;letter-spacing:0px;word-spacing:0px;writing-mode:lr-tb;text-anchor:start;fill:#000000;fill-opacity:1;stroke:none;font-family:DejaVu Sans;-inkscape-font-specification:Sans"
       x="-213.91217"
       y="1314.9242"
>>>>>>> fixheadings
       id="text4889"
       sodipodi:linespacing="125%"><tspan
         sodipodi:role="line"
         id="tspan4891"
<<<<<<< HEAD
         x="-145.71428"
         y="558.07648">&quot;master&quot; branch</tspan></text>
    <text
       xml:space="preserve"
       style="font-size:48px;font-style:normal;font-variant:normal;font-weight:normal;font-stretch:normal;text-align:start;line-height:125%;letter-spacing:0px;word-spacing:0px;writing-mode:lr-tb;text-anchor:start;fill:#000000;fill-opacity:1;stroke:none;font-family:DejaVu Sans;-inkscape-font-specification:Sans"
       x="882.85699"
       y="6.6478443"
=======
         x="-213.91217"
         y="1314.9242">&quot;master&quot; branch</tspan></text>
    <text
       xml:space="preserve"
       style="font-size:48px;font-style:normal;font-variant:normal;font-weight:normal;font-stretch:normal;text-align:start;line-height:125%;letter-spacing:0px;word-spacing:0px;writing-mode:lr-tb;text-anchor:start;fill:#000000;fill-opacity:1;stroke:none;font-family:DejaVu Sans;-inkscape-font-specification:Sans"
       x="899.01941"
       y="814.7699"
>>>>>>> fixheadings
       id="text4893"
       sodipodi:linespacing="125%"><tspan
         sodipodi:role="line"
         id="tspan4895"
<<<<<<< HEAD
         x="882.85699"
         y="6.6478443">index</tspan><tspan
         sodipodi:role="line"
         x="882.85699"
         y="66.647842"
=======
         x="899.01941"
         y="814.7699">index</tspan><tspan
         sodipodi:role="line"
         x="899.01941"
         y="874.7699"
>>>>>>> fixheadings
         id="tspan4897">(what files will be committed next)</tspan></text>
    <g
       id="g5504"
       transform="translate(-97.142857,-2537.1429)">
      <rect
         y="-49.066387"
         x="-187.1429"
         height="505.71429"
         width="723.91724"
         id="rect3149"
         style="fill:none;stroke:#000000;stroke-width:5;stroke-linejoin:bevel;stroke-miterlimit:4;stroke-opacity:1;stroke-dasharray:none;stroke-dashoffset:0" />
      <text
         sodipodi:linespacing="125%"
         id="text4945"
         y="230.20676"
         x="-87.913002"
         style="font-size:48px;font-style:normal;font-variant:normal;font-weight:normal;font-stretch:normal;text-align:start;line-height:125%;letter-spacing:0px;word-spacing:0px;writing-mode:lr-tb;text-anchor:start;fill:#000000;fill-opacity:1;stroke:none;font-family:DejaVu Sans;-inkscape-font-specification:Sans"
         xml:space="preserve"><tspan
           y="230.20676"
           x="-87.913002"
           id="tspan4947"
           sodipodi:role="line">git-trouble.md</tspan><tspan
           id="tspan4949"
           y="290.20676"
           x="-87.913002"
           sodipodi:role="line" /></text>
      <text
         sodipodi:linespacing="125%"
         id="text4951"
         y="157.36703"
         x="-101.01525"
         style="font-size:48px;font-style:normal;font-variant:normal;font-weight:normal;font-stretch:normal;text-align:start;line-height:125%;letter-spacing:0px;word-spacing:0px;writing-mode:lr-tb;text-anchor:start;fill:#000000;fill-opacity:1;stroke:none;font-family:DejaVu Sans;-inkscape-font-specification:Sans"
         xml:space="preserve"><tspan
           y="157.36703"
           x="-101.01525"
           id="tspan4953"
           sodipodi:role="line">pix/00-nogit.svg</tspan></text>
      <text
         sodipodi:linespacing="125%"
         id="text5500"
         y="-113.3521"
         x="-177.14285"
         style="font-size:48px;font-style:normal;font-variant:normal;font-weight:normal;font-stretch:normal;text-align:start;line-height:125%;letter-spacing:0px;word-spacing:0px;writing-mode:lr-tb;text-anchor:start;fill:#000000;fill-opacity:1;stroke:none;font-family:DejaVu Sans;-inkscape-font-specification:Sans"
         xml:space="preserve"><tspan
           y="-113.3521"
           x="-177.14285"
           id="tspan5502"
           sodipodi:role="line">01879361f8014ca8d80cfb6c7e4a27f2346dc50b</tspan></text>
    </g>
    <text
       xml:space="preserve"
       style="font-size:85.44100952px;font-style:normal;font-variant:normal;font-weight:normal;font-stretch:normal;text-align:start;line-height:125%;letter-spacing:0px;word-spacing:0px;writing-mode:lr-tb;text-anchor:start;fill:#000000;fill-opacity:1;stroke:none;font-family:DejaVu Sans;-inkscape-font-specification:Sans"
<<<<<<< HEAD
       x="762.03961"
       y="-587.76288"
=======
       x="778.20203"
       y="220.35916"
>>>>>>> fixheadings
       id="text5514"
       sodipodi:linespacing="125%"><tspan
         sodipodi:role="line"
         id="tspan5516"
<<<<<<< HEAD
         x="762.03961"
         y="-587.76288">HEAD (of master branch)</tspan></text>
=======
         x="778.20203"
         y="220.35916">HEAD (of master branch)</tspan></text>
>>>>>>> fixheadings
    <g
       id="g5568"
       transform="translate(-74.285714,-1634.2857)">
      <rect
         y="-74.780693"
         x="-201.95866"
         height="505.71429"
         width="723.91724"
         id="rect3149-9"
         style="fill:none;stroke:#000000;stroke-width:5;stroke-linejoin:bevel;stroke-miterlimit:4;stroke-opacity:1;stroke-dasharray:none;stroke-dashoffset:0" />
      <text
         sodipodi:linespacing="125%"
         id="text5537"
         y="-141.92352"
         x="-194.28571"
         style="font-size:48px;font-style:normal;font-variant:normal;font-weight:normal;font-stretch:normal;text-align:start;line-height:125%;letter-spacing:0px;word-spacing:0px;writing-mode:lr-tb;text-anchor:start;fill:#000000;fill-opacity:1;stroke:none;font-family:DejaVu Sans;-inkscape-font-specification:Sans"
         xml:space="preserve"><tspan
           y="-141.92352"
           x="-194.28571"
           id="tspan5539"
           sodipodi:role="line">0fa22809cbe625819d34c0e14fa6d679f92cbd67</tspan></text>
      <text
         sodipodi:linespacing="125%"
         id="text5541"
         y="80.933609"
         x="-125.71429"
         style="font-size:48px;font-style:normal;font-variant:normal;font-weight:normal;font-stretch:normal;text-align:start;line-height:125%;letter-spacing:0px;word-spacing:0px;writing-mode:lr-tb;text-anchor:start;fill:#000000;fill-opacity:1;stroke:none;font-family:DejaVu Sans;-inkscape-font-specification:Sans"
         xml:space="preserve"><tspan
           y="80.933609"
           x="-125.71429"
           id="tspan5543"
           sodipodi:role="line">git-trouble.md</tspan><tspan
           id="tspan5545"
           y="140.93361"
           x="-125.71429"
           sodipodi:role="line">pix/01-gitinit.svg</tspan><tspan
           id="tspan5547"
           y="200.93361"
           x="-125.71429"
           sodipodi:role="line">pix/02-gitcommit.svg</tspan></text>
    </g>
    <path
       style="fill:none;stroke:#000000;stroke-width:6;stroke-linecap:butt;stroke-linejoin:miter;stroke-miterlimit:4;stroke-opacity:1;stroke-dasharray:none;marker-start:none;marker-end:url(#Arrow1Lend)"
       d="m 87.262234,-1851.9236 -2.54586,-214.2857"
       id="path3943"
       inkscape:connector-curvature="0" />
    <g
       id="g5661">
      <rect
         y="-903.35211"
         x="-181.42857"
         height="368.57144"
         width="677.14282"
         id="rect3149-5"
         style="fill:none;stroke:#000000;stroke-width:5;stroke-linejoin:bevel;stroke-miterlimit:4;stroke-opacity:1;stroke-dasharray:none;stroke-dashoffset:0" />
      <text
         sodipodi:linespacing="125%"
         id="text5651"
         y="-799.06641"
         x="-57.142857"
         style="font-size:48px;font-style:normal;font-variant:normal;font-weight:normal;font-stretch:normal;text-align:start;line-height:125%;letter-spacing:0px;word-spacing:0px;writing-mode:lr-tb;text-anchor:start;fill:#000000;fill-opacity:1;stroke:none;font-family:DejaVu Sans;-inkscape-font-specification:Sans"
         xml:space="preserve"><tspan
           y="-799.06641"
           x="-57.142857"
           id="tspan5653"
           sodipodi:role="line">git-trouble.md</tspan><tspan
           id="tspan5655"
           y="-739.06641"
           x="-57.142857"
           sodipodi:role="line">pix/03-gitcommit.svg</tspan></text>
      <text
         sodipodi:linespacing="125%"
         id="text5657"
         y="-947.63782"
         x="-160"
         style="font-size:48px;font-style:normal;font-variant:normal;font-weight:normal;font-stretch:normal;text-align:start;line-height:125%;letter-spacing:0px;word-spacing:0px;writing-mode:lr-tb;text-anchor:start;fill:#000000;fill-opacity:1;stroke:none;font-family:DejaVu Sans;-inkscape-font-specification:Sans"
         xml:space="preserve"><tspan
           y="-947.63782"
           x="-160"
           id="tspan5659"
           sodipodi:role="line">78a1320175b9adc9367ada99da649552e84a4f05</tspan></text>
    </g>
    <path
       style="fill:none;stroke:#000000;stroke-width:6;stroke-linecap:butt;stroke-linejoin:miter;stroke-miterlimit:4;stroke-opacity:1;stroke-dasharray:none;marker-start:none;marker-end:url(#Arrow1Lend)"
       d="m 150.11938,-1034.7806 -2.54586,-140"
       id="path3943-2"
       inkscape:connector-curvature="0" />
    <rect
<<<<<<< HEAD
       style="fill:none;stroke:#000000;stroke-width:5;stroke-linejoin:bevel;stroke-miterlimit:4;stroke-opacity:1;stroke-dasharray:5.00000006, 10.00000013;stroke-dashoffset:0"
       id="rect3149-8"
       width="934.28571"
       height="454.28574"
       x="-312.85712"
       y="-189.06641" />
=======
       style="fill:none;stroke:#000000;stroke-width:5;stroke-linejoin:bevel;stroke-miterlimit:4;stroke-opacity:1;stroke-dasharray:5.00000005999999964, 10.00000013000000010;stroke-dashoffset:0"
       id="rect3149-8-9"
       width="934.28571"
       height="454.28574"
       x="-1753.6692"
       y="-149.15053" />
    <text
       xml:space="preserve"
       style="font-size:93.32971191px;font-style:normal;font-variant:normal;font-weight:normal;font-stretch:normal;text-align:start;line-height:125%;letter-spacing:0px;word-spacing:0px;writing-mode:lr-tb;text-anchor:start;fill:#000000;fill-opacity:1;stroke:none;font-family:DejaVu Sans;-inkscape-font-specification:Sans"
       x="-1609.301"
       y="1318.1349"
       id="text4889-7"
       sodipodi:linespacing="125%"><tspan
         sodipodi:role="line"
         id="tspan4891-3"
         x="-1609.301"
         y="1318.1349">&quot;fixheadings&quot; branch</tspan></text>
    <text
       xml:space="preserve"
       style="font-size:48px;font-style:normal;font-variant:normal;font-weight:normal;font-stretch:normal;text-align:start;line-height:125%;letter-spacing:0px;word-spacing:0px;writing-mode:lr-tb;text-anchor:start;fill:#000000;fill-opacity:1;stroke:none;font-family:DejaVu Sans;-inkscape-font-specification:Sans"
       x="-1629.3835"
       y="-19.15052"
       id="text5775"
       sodipodi:linespacing="125%"><tspan
         sodipodi:role="line"
         id="tspan5777"
         x="-1629.3835"
         y="-19.15052">presentation.md</tspan></text>
    <text
       xml:space="preserve"
       style="font-size:48px;font-style:normal;font-variant:normal;font-weight:normal;font-stretch:normal;text-align:start;line-height:125%;letter-spacing:0px;word-spacing:0px;writing-mode:lr-tb;text-anchor:start;fill:#000000;fill-opacity:1;stroke:none;font-family:DejaVu Sans;-inkscape-font-specification:Sans"
       x="-508.57144"
       y="-56.209244"
       id="text5779"
       sodipodi:linespacing="125%"><tspan
         sodipodi:role="line"
         id="tspan5781"
         x="-508.57144"
         y="-56.209244" /></text>
    <flowRoot
       xml:space="preserve"
       id="flowRoot5783"
       style="fill:black;stroke:none;stroke-opacity:1;stroke-width:1px;stroke-linejoin:miter;stroke-linecap:butt;fill-opacity:1;font-family:DejaVu Sans;font-style:normal;font-weight:normal;font-size:48px;line-height:125%;letter-spacing:0px;word-spacing:0px;-inkscape-font-specification:Sans;font-stretch:normal;font-variant:normal;text-anchor:start;text-align:start;writing-mode:lr"><flowRegion
         id="flowRegion5785"><rect
           id="rect5787"
           width="161.6244"
           height="549.52301"
           x="-2068.7925"
           y="389.70212" /></flowRegion><flowPara
         id="flowPara5789"></flowPara></flowRoot>    <rect
       style="fill:none;stroke:#00ff00;stroke-width:5;stroke-linejoin:bevel;stroke-miterlimit:4;stroke-opacity:1;stroke-dasharray:5.00000005999999964, 10.00000013000000010;stroke-dashoffset:0"
       id="rect3149-8"
       width="934.28571"
       height="454.28574"
       x="-296.69467"
       y="-172.90399" />
    <text
       xml:space="preserve"
       style="font-size:48px;font-style:normal;font-variant:normal;font-weight:normal;font-stretch:normal;text-align:start;line-height:125%;letter-spacing:0px;word-spacing:0px;writing-mode:lr-tb;text-anchor:start;fill:none;fill-opacity:1;stroke:none;font-family:DejaVu Sans;-inkscape-font-specification:Sans"
       x="-172.40898"
       y="-68.618233"
       id="text5769"
       sodipodi:linespacing="125%"><tspan
         sodipodi:role="line"
         id="tspan5771"
         x="-172.40898"
         y="-68.618233">pix/04-commit.svg</tspan><tspan
         sodipodi:role="line"
         x="-172.40898"
         y="-8.6182308"
         id="tspan5773">presentation.md</tspan></text>
    <text
       xml:space="preserve"
       style="font-size:48px;font-style:normal;font-variant:normal;font-weight:normal;font-stretch:normal;text-align:start;line-height:125%;letter-spacing:0px;word-spacing:0px;writing-mode:lr-tb;text-anchor:start;fill:none;fill-opacity:1;stroke:none;font-family:DejaVu Sans;-inkscape-font-specification:Sans"
       x="-274.76151"
       y="-256.79553"
       id="text5791"
       sodipodi:linespacing="125%"><tspan
         sodipodi:role="line"
         id="tspan5793"
         x="-274.76151"
         y="-256.79553">460e456d2731a276ead582ac29aea2b8b7c3bbd3</tspan></text>
    <rect
       style="fill:none;fill-opacity:1;stroke:#ff00ff;stroke-width:5;stroke-linejoin:bevel;stroke-miterlimit:4;stroke-opacity:1;stroke-dasharray:none;stroke-dashoffset:0"
       id="rect5803"
       width="1018.2338"
       height="614.17273"
       x="-307.08636"
       y="502.8392" />
    <text
       xml:space="preserve"
       style="font-size:48px;font-style:normal;font-variant:normal;font-weight:normal;font-stretch:normal;text-align:start;line-height:125%;letter-spacing:0px;word-spacing:0px;writing-mode:lr-tb;text-anchor:start;fill:#000000;fill-opacity:1;stroke:none;font-family:DejaVu Sans;-inkscape-font-specification:Sans"
       x="-1729.3812"
       y="-256.7955"
       id="text5805"
       sodipodi:linespacing="125%"><tspan
         sodipodi:role="line"
         id="tspan5807"
         x="-1729.3812"
         y="-256.7955">77e33d2a3a4b16c40019354f1f27405961eab4ab</tspan></text>
    <rect
       style="fill:none;stroke:#000000;stroke-width:5;stroke-linejoin:bevel;stroke-miterlimit:4;stroke-opacity:1;stroke-dasharray:none;stroke-dashoffset:0"
       id="rect5803-6"
       width="1018.2338"
       height="614.17273"
       x="-1802.1123"
       y="506.87982" />
    <path
       style="fill:none;stroke:#000000;stroke-width:6;stroke-linecap:butt;stroke-linejoin:miter;stroke-miterlimit:4;stroke-opacity:1;stroke-dasharray:none;marker-start:none;marker-end:url(#Arrow1Lend)"
       d="m 106.07446,-340.3387 -2.54586,-140"
       id="path3943-2-3"
       inkscape:connector-curvature="0" />
    <path
       style="fill:none;stroke:#000000;stroke-width:6;stroke-linecap:butt;stroke-linejoin:miter;stroke-miterlimit:4;stroke-opacity:1;stroke-dasharray:none;marker-start:none;marker-end:url(#Arrow1Lend)"
       d="m -1356.2415,-364.89767 1128.29821,-240.8187"
       id="path3943-2-7"
       inkscape:connector-curvature="0" />
    <rect
       style="fill:none;stroke:#ff00ff;stroke-width:5;stroke-linejoin:bevel;stroke-miterlimit:4;stroke-opacity:1;stroke-dasharray:none;stroke-dashoffset:0"
       id="rect5868"
       width="420.22345"
       height="270.72089"
       x="973.78705"
       y="1157.4181" />
>>>>>>> fixheadings
  </g>
</svg>
